readData
…
  ### Make dataset for state vs. average cost of hospital visit  
  SurgeryData %>% 
    group_by(`Provider State`) %>%
    summarise(averageCost = mean(`Average Total Payments`)) %>% 
    arrange(desc(averageCost)) %>% 
    mutate(StateName = tolower(abbr2state(`Provider State`))) -> StateVsAvgCost

Next, we want to find the most expensive procedure across all the hospitals. We use dplyr functions to accomplish this. Our findings show that Heart transplants with complications are the most expensive.

  ### Steps to find most expensive procedure
  SurgeryData %>% 
    group_by(`DRG Definition`) %>% 
    summarise(averageCost = mean(`Average Total Payments`)) %>% 
    arrange(desc(averageCost))
#> # A tibble: 564 x 2
#>    `DRG Definition`                                             averageCost
#>    <chr>                                                              <dbl>
#>  1 001 - HEART TRANSPLANT OR IMPLANT OF HEART ASSIST SYSTEM W …     244555.
#>  2 002 - HEART TRANSPLANT OR IMPLANT OF HEART ASSIST SYSTEM W/…     155086.
#>  3 215 - OTHER HEART ASSIST SYSTEM IMPLANT                          136869.
#>  4 003 - ECMO OR TRACH W MV 96+ HRS OR PDX EXC FACE, MOUTH & N…     134200.
#>  5 005 - LIVER TRANSPLANT W MCC OR INTESTINAL TRANSPLANT            125108.
#>  6 014 - ALLOGENEIC BONE MARROW TRANSPLANT                          119136.
#>  7 927 - EXTENSIVE BURNS OR FULL THICKNESS BURNS W MV 96+ HRS …     115031.
#>  8 007 - LUNG TRANSPLANT                                            104386.
#>  9 453 - COMBINED ANTERIOR/POSTERIOR SPINAL FUSION W MCC             98294.
#> 10 020 - INTRACRANIAL VASCULAR PROCEDURES W PDX HEMORRHAGE W M…      92116.
#> # … with 554 more rows
…
